…
<!-- end list -->

``` r
market_history <- tibble()
for (id in election_markets$id) {
  market_history <- bind_rows(
    market_history,
    market_history(id)
  )
}
```

``` r
market_history
#> # A tibble: 88,546 x 8
#>    mid   contract date        open  high   low close   vol
#>    <chr> <chr>    <date>     <dbl> <dbl> <dbl> <dbl> <dbl>
#>  1 4558  Anaya    2018-06-26  0.8   0.8   0.8  0.8       3
#>  2 4558  Meade    2018-06-27  0.2   0.21  0.2  0.21    107
#>  3 4558  AMLO     2018-06-27  0.03  0.03  0.03 0.03    122
#>  4 4558  Anaya    2018-06-27  0.8   0.8   0.67 0.74    607
#>  5 4558  Meade    2018-06-28  0.21  0.31  0.15 0.24   1559
#>  6 4558  AMLO     2018-06-28  0.03  0.07  0.02 0.03   1830
#>  7 4558  Anaya    2018-06-28  0.74  0.85  0.68 0.71   1641
#>  8 4558  Meade    2018-06-29  0.24  0.25  0.16 0.21   1656
#>  9 4558  AMLO     2018-06-29  0.03  0.04  0.02 0.02    732
#> 10 4558  Anaya    2018-06-29  0.71  0.9   0.71 0.780  2139
#> # … with 88,536 more rows
```
…
