…
We can then add these votes to our data frame of probabilities.

``` r
college_probs <- left_join(state_probs, college_votes, by = "state")
arrange(college_probs, desc(votes))
#> # A tibble: 51 x 6
#>    state share     sd  prob market votes
#>    <chr> <dbl>  <dbl> <dbl> <lgl>  <int>
#>  1 CA    0.661 0.0838 0.976 FALSE     55
#>  2 TX    0.453 0.0450 0.24  TRUE      38
#>  3 FL    0.494 0.0614 0.44  TRUE      29
#>  4 NY    0.634 0.0701 0.973 FALSE     29
#>  5 IL    0.590 0.0640 0.920 FALSE     20
#>  6 PA    0.496 0.0334 0.66  TRUE      20
#>  7 OH    0.457 0.0405 0.36  TRUE      18
#>  8 GA    0.473 0.0809 0.27  TRUE      16
#>  9 MI    0.499 0.0545 0.66  TRUE      16
#> 10 NC    0.481 0.0479 0.44  TRUE      15
#> # … with 41 more rows
```
…
